Get predictions to asses model performance from a fitted plus model. — get_predictions • plus
…
#> Warning: one multinomial or binomial class has fewer than 8  observations; dangerous ground
#> Warning: one multinomial or binomial class has fewer than 8  observations; dangerous ground
#> Warning: one multinomial or binomial class has fewer than 8  observations; dangerous ground
#> Warning: one multinomial or binomial class has fewer than 8  observations; dangerous ground
#> Warning: one multinomial or binomial class has fewer than 8  observations; dangerous ground
#> Warning: one multinomial or binomial class has fewer than 8  observations; dangerous ground
#> Warning: one multinomial or binomial class has fewer than 8  observations; dangerous ground
#> Warning: one multinomial or binomial class has fewer than 8  observations; dangerous ground
#> Warning: one multinomial or binomial class has fewer than 8  observations; dangerous ground
#> Warning: one multinomial or binomial class has fewer than 8  observations; dangerous ground
#> Warning: one multinomial or binomial class has fewer than 8  observations; dangerous ground
#> Warning: one multinomial or binomial class has fewer than 8  observations; dangerous ground
#> Warning: one multinomial or binomial class has fewer than 8  observations; dangerous ground
get_predictions(model, newx, newy)
#> # A tibble: 35 × 4
#>    truth  Class1     Class2 predicted
#>    <fct>   <dbl>      <dbl> <fct>    
#>  1 Class1  0.999 0.00105    Class1   
#>  2 Class2  0.970 0.0298     Class1   
#>  3 Class2  0.744 0.256      Class2   
#>  4 Class2  0.996 0.00403    Class1   
#>  5 Class2  0.994 0.00606    Class1   
#>  6 Class2  0.999 0.000604   Class1   
#>  7 Class1  1.00  0.00000769 Class1   
#>  8 Class1  0.843 0.157      Class2   
#>  9 Class1  0.977 0.0234     Class1   
#> 10 Class1  0.996 0.00398    Class1   
#> # ℹ 25 more rows
get_predictions(model, newx, newy, plus = FALSE)
#> # A tibble: 35 × 4
#>    truth  Class1 Class2 predicted
#>    <fct>   <dbl>  <dbl> <fct>    
#>  1 Class1  0.930 0.0699 Class1   
#>  2 Class2  0.923 0.0767 Class1   
#>  3 Class2  0.834 0.166  Class1   
#>  4 Class2  0.961 0.0387 Class1   
#>  5 Class2  0.930 0.0696 Class1   
#>  6 Class2  0.956 0.0436 Class1   
#>  7 Class1  0.970 0.0295 Class1   
#>  8 Class1  0.886 0.114  Class1   
#>  9 Class1  0.924 0.0765 Class1   
#> 10 Class1  0.915 0.0854 Class1   
#> # ℹ 25 more rows
…
